D:\workspace\notemates\notemates-client\src\main\java\by\notemates\ClientController.java
D:\workspace\notemates\notemates-client\src\main\java\by\notemates\NotematesClientApplication.java
D:\workspace\notemates\notemates-client\src\main\java\by\notemates\MvcConfiguration.java
